INFO -- 127.0.0.1 -- 2017-09-27T13:45:55+00:00 -- Enter Hybrid_Auth::initialize()
INFO -- 127.0.0.1 -- 2017-09-27T13:45:55+00:00 -- Hybrid_Auth::initialize(). PHP version: 7.1.8
INFO -- 127.0.0.1 -- 2017-09-27T13:45:55+00:00 -- Hybrid_Auth::initialize(). Hybrid_Auth version: 2.5.1
INFO -- 127.0.0.1 -- 2017-09-27T13:45:55+00:00 -- Hybrid_Auth::initialize(). Hybrid_Auth called from: http://127.0.0.1/edugeController.php?provider=Google
ERROR -- 127.0.0.1 -- 2017-09-27T13:45:55+00:00 -- Hybridauth Library needs the CURL PHP extension. -- 
