{
	"ReturnCode" : 0,
	"MessageCode" : "",
	"Data" :
	[{
		"id": 1,
		"name": "Project 1",
		"description": "C'est le projet n°1.",
		"totalHour": 100,
		"spentHour": 80,
		"deadline": "12.12.2016",
                "status" : 0,
		"managers": [{
			"id": 1000,
			"name": "Lel"
		}, {
			"id": 1001,
			"name": "Ele"
		}],
		"QRCode": "Oui, non.",
		"students": [{
			"id": 1002,
			"name": "Student1"
		}, {
			"id": 1003,
			"name": "Student2"
		}]
	}, {
		"id": 2,
		"name": "Project 2",
		"description": "C'est le projet n°2.",
		"totalHour": 200,
		"spentHour": 180,
		"deadline": "13.12.2016",
                "status" : 0,
		"managers": [{
			"id": 1005,
			"name": "Garcia"
		}, {
			"id": 1006,
			"name": "Jossi"
		}],
		"QRCode": "Oui, non. Non, Oui.",
		"students": [{
			"id": 1002,
			"name": "Student1"
		}, {
			"id": 1103,
			"name": "Student4"
		}]
	}]
}