{
    "mockup": {
        "controls": {
            "control": [
                {
                    "ID": "0",
                    "typeID": "MenuBar",
                    "zOrder": "0",
                    "w": "1710",
                    "h": "65",
                    "measuredW": "1702",
                    "measuredH": "32",
                    "x": "7",
                    "y": "170",
                    "properties": {
                        "hrefs": {
                            "href": [
                                {},
                                {},
                                {},
                                {},
                                {},
                                {},
                                {},
                                {},
                                {},
                                {},
                                {},
                                {},
                                {},
                                {},
                                {},
                                {},
                                {},
                                {},
                                {},
                                {},
                                {},
                                {},
                                {},
                                {},
                                {},
                                {},
                                {},
                                {},
                                {},
                                {},
                                {},
                                {},
                                {},
                                {},
                                {},
                                {},
                                {},
                                {},
                                {},
                                {},
                                {},
                                {},
                                {},
                                {},
                                {},
                                {},
                                {},
                                {}
                            ]
                        },
                        "text": "[En cours],[Erreur],[Nombre d'heure],[paramètres],[Projet],[Horaires],[Jours non travaillés],[Modification du template de notification],[gestion des rôles],,,,,,,,,,,,,,,,,,,,,,,,,,,,,,,,,,,,,,,[Logout]"
                    }
                },
                {
                    "ID": "1",
                    "typeID": "TextInput",
                    "zOrder": "1",
                    "w": "193",
                    "measuredW": "176",
                    "measuredH": "27",
                    "x": "1067",
                    "y": "188",
                    "properties": {
                        "text": "Tapez le texte à rechercher",
                        "borderStyle": "rectangle",
                        "textColor": "10066329",
                        "italic": "true"
                    }
                },
                {
                    "ID": "2",
                    "typeID": "ComboBox",
                    "zOrder": "2",
                    "w": "73",
                    "measuredW": "46",
                    "measuredH": "24",
                    "x": "1270",
                    "y": "188",
                    "properties": {
                        "text": "De"
                    }
                },
                {
                    "ID": "3",
                    "typeID": "ComboBox",
                    "zOrder": "3",
                    "w": "79",
                    "measuredW": "38",
                    "measuredH": "24",
                    "x": "1359",
                    "y": "188",
                    "properties": {
                        "text": "à"
                    }
                },
                {
                    "ID": "8",
                    "typeID": "ComboBox",
                    "zOrder": "5",
                    "measuredW": "108",
                    "measuredH": "100",
                    "x": "1447",
                    "y": "188",
                    "properties": {
                        "text": "Choisissez un filtre\nfiltre de base\nclasse mercredi matin\nfiltre 2\n",
                        "state": "up",
                        "selectedIndex": "1"
                    }
                },
                {
                    "ID": "11",
                    "typeID": "IconLabel",
                    "zOrder": "4",
                    "measuredW": "57",
                    "measuredH": "39",
                    "x": "1573",
                    "y": "182",
                    "properties": {
                        "icon": {
                            "ID": "F5C5433D-549B-4E6E-80D0-92864D5A298E",
                            "size": "small"
                        },
                        "text": "Henry.Luc"
                    }
                }
            ]
        },
        "mockupH": "118",
        "mockupW": "1710",
        "measuredW": "1717",
        "measuredH": "288",
        "version": "1.0"
    }
}