{
    "mockup": {
        "controls": {
            "control": [
                {
                    "ID": "0",
                    "typeID": "BrowserWindow",
                    "zOrder": "0",
                    "w": "703",
                    "h": "492",
                    "measuredW": "450",
                    "measuredH": "400",
                    "x": "323",
                    "y": "58"
                },
                {
                    "ID": "1",
                    "typeID": "Title",
                    "zOrder": "1",
                    "measuredW": "570",
                    "measuredH": "44",
                    "x": "327",
                    "y": "218",
                    "properties": {
                        "bold": "false",
                        "color": "0",
                        "text": "Welcome to Balsamiq Mockups!"
                    }
                },
                {
                    "ID": "2",
                    "typeID": "Label",
                    "zOrder": "2",
                    "measuredW": "94",
                    "measuredH": "26",
                    "x": "328",
                    "y": "299",
                    "properties": {
                        "bold": "true",
                        "color": "3355443",
                        "size": "18",
                        "text": "Start here!"
                    }
                },
                {
                    "ID": "3",
                    "typeID": "Image",
                    "zOrder": "3",
                    "w": "166",
                    "h": "166",
                    "measuredW": "77",
                    "measuredH": "79",
                    "x": "511",
                    "y": "43",
                    "properties": {
                        "src": {
                            "Anchor": "-1",
                            "ID": "B0D5351C-4553-5BC5-3353-D61D302377D9"
                        }
                    }
                },
                {
                    "ID": "4",
                    "typeID": "BrowserWindow",
                    "zOrder": "4",
                    "w": "1009",
                    "h": "640",
                    "measuredW": "450",
                    "measuredH": "400",
                    "x": "284",
                    "y": "25",
                    "properties": {
                        "text": "Administration\nhttp://Pointeuse/admin/GestionErreur"
                    }
                },
                {
                    "ID": "5",
                    "typeID": "Title",
                    "zOrder": "5",
                    "measuredW": "253",
                    "measuredH": "44",
                    "x": "635",
                    "y": "121",
                    "properties": {
                        "bold": "false",
                        "color": "0",
                        "text": "Administration"
                    }
                },
                {
                    "ID": "6",
                    "typeID": "Label",
                    "zOrder": "6",
                    "w": "424",
                    "measuredW": "183",
                    "measuredH": "26",
                    "x": "312",
                    "y": "218",
                    "properties": {
                        "bold": "true",
                        "size": "18",
                        "text": "Gestionnaire d'erreur"
                    }
                },
                {
                    "ID": "10",
                    "typeID": "MenuBar",
                    "zOrder": "7",
                    "w": "952",
                    "h": "31",
                    "measuredW": "108",
                    "measuredH": "32",
                    "x": "312",
                    "y": "166",
                    "properties": {
                        "hrefs": {
                            "href": [
                                {},
                                {},
                                {},
                                {},
                                {}
                            ]
                        },
                        "text": ",,,,"
                    }
                },
                {
                    "ID": "17",
                    "typeID": "DataGrid",
                    "zOrder": "8",
                    "w": "858",
                    "h": "106",
                    "measuredW": "327",
                    "measuredH": "95",
                    "x": "312",
                    "y": "251",
                    "properties": {
                        "text": "jonathan.brljq@eduge.ch,Borel-jaquet, Jonathan,4\nKhalil.mddb@eduge.ch,Meddeb, Khalil,4\nMarco.ntl@eduge.ch,Natale, Marco,5",
                        "hasHeader": "false",
                        "borderStyle": "square",
                        "selectedIndex": "2"
                    }
                },
                {
                    "ID": "21",
                    "typeID": "DataGrid",
                    "zOrder": "9",
                    "w": "952",
                    "h": "156",
                    "measuredW": "185",
                    "measuredH": "215",
                    "x": "312",
                    "y": "341",
                    "properties": {
                        "text": "Heure de pointage 1, 07h45\nHeure de pointage 2,12h34\nHeure de pointage 3,13h54\nHeure de pointage 4,13h55\nHeure de pointage 5,16h29\n\n",
                        "hasHeader": "false",
                        "borderStyle": "square",
                        "selectedIndex": "-1"
                    }
                },
                {
                    "ID": "24",
                    "typeID": "Button",
                    "zOrder": "16",
                    "w": "101",
                    "h": "31",
                    "measuredW": "75",
                    "measuredH": "27",
                    "x": "1164",
                    "y": "310",
                    "properties": {
                        "text": "Prévenir"
                    }
                },
                {
                    "ID": "26",
                    "typeID": "Button",
                    "zOrder": "10",
                    "w": "101",
                    "h": "31",
                    "measuredW": "85",
                    "measuredH": "27",
                    "x": "1163",
                    "y": "466",
                    "properties": {
                        "text": "Supprimer",
                        "color": "13369344"
                    }
                },
                {
                    "ID": "27",
                    "typeID": "Button",
                    "zOrder": "11",
                    "w": "101",
                    "h": "31",
                    "measuredW": "85",
                    "measuredH": "27",
                    "x": "1163",
                    "y": "435",
                    "properties": {
                        "text": "Supprimer",
                        "color": "13369344"
                    }
                },
                {
                    "ID": "28",
                    "typeID": "Button",
                    "zOrder": "12",
                    "w": "101",
                    "h": "31",
                    "measuredW": "85",
                    "measuredH": "27",
                    "x": "1163",
                    "y": "404",
                    "properties": {
                        "text": "Supprimer",
                        "state": "up",
                        "underline": "false",
                        "color": "13369344"
                    }
                },
                {
                    "ID": "29",
                    "typeID": "Button",
                    "zOrder": "13",
                    "w": "101",
                    "h": "31",
                    "measuredW": "85",
                    "measuredH": "27",
                    "x": "1163",
                    "y": "373",
                    "properties": {
                        "text": "Supprimer",
                        "color": "13369344"
                    }
                },
                {
                    "ID": "30",
                    "typeID": "Button",
                    "zOrder": "14",
                    "w": "101",
                    "h": "32",
                    "measuredW": "85",
                    "measuredH": "27",
                    "x": "1163",
                    "y": "341",
                    "properties": {
                        "text": "Supprimer",
                        "color": "13369344"
                    }
                },
                {
                    "ID": "32",
                    "typeID": "DataGrid",
                    "zOrder": "15",
                    "w": "100",
                    "h": "90",
                    "measuredW": "17",
                    "measuredH": "35",
                    "x": "1164",
                    "y": "251",
                    "properties": {
                        "text": "",
                        "hasHeader": "false"
                    }
                }
            ]
        },
        "mockupH": "640",
        "mockupW": "1009",
        "measuredW": "1293",
        "measuredH": "665",
        "version": "1.0"
    }
}