{
    "mockup": {
        "controls": {
            "control": [
                {
<<<<<<< HEAD
                    "ID": "0",
=======
                    "ID": "29",
>>>>>>> ca4087dd54550ea14a7db1d37a0f2923b5b1c6d2
                    "typeID": "Title",
                    "zOrder": "0",
                    "measuredW": "570",
                    "measuredH": "44",
                    "x": "80",
                    "y": "200",
                    "properties": {
                        "bold": "false",
                        "color": "0",
                        "text": "Welcome to Balsamiq Mockups!"
                    }
                },
                {
<<<<<<< HEAD
                    "ID": "1",
=======
                    "ID": "30",
>>>>>>> ca4087dd54550ea14a7db1d37a0f2923b5b1c6d2
                    "typeID": "Label",
                    "zOrder": "1",
                    "measuredW": "94",
                    "measuredH": "26",
                    "x": "81",
                    "y": "281",
                    "properties": {
                        "bold": "true",
                        "color": "3355443",
                        "size": "18",
                        "text": "Start here!"
                    }
                },
                {
<<<<<<< HEAD
                    "ID": "2",
=======
                    "ID": "31",
>>>>>>> ca4087dd54550ea14a7db1d37a0f2923b5b1c6d2
                    "typeID": "Arrow",
                    "zOrder": "2",
                    "w": "61",
                    "h": "10",
                    "measuredW": "150",
                    "measuredH": "100",
                    "x": "12",
                    "y": "294",
                    "properties": {
                        "color": "13576743",
                        "direction": "top",
                        "rightArrow": "false"
                    }
                },
                {
<<<<<<< HEAD
                    "ID": "3",
=======
                    "ID": "32",
>>>>>>> ca4087dd54550ea14a7db1d37a0f2923b5b1c6d2
                    "typeID": "Image",
                    "zOrder": "3",
                    "w": "166",
                    "h": "166",
                    "measuredW": "77",
                    "measuredH": "79",
                    "x": "264",
                    "y": "25",
                    "properties": {
                        "src": {
                            "Anchor": "-1",
                            "ID": "B0D5351C-4553-5BC5-3353-D61D302377D9"
                        }
                    }
                },
                {
<<<<<<< HEAD
                    "ID": "4",
=======
                    "ID": "33",
>>>>>>> ca4087dd54550ea14a7db1d37a0f2923b5b1c6d2
                    "typeID": "BrowserWindow",
                    "zOrder": "4",
                    "w": "1009",
                    "h": "640",
                    "measuredW": "450",
                    "measuredH": "400",
                    "x": "10",
                    "y": "4",
                    "properties": {
                        "text": "Administration\nhttp://Pointeuse/admin/settingSchedule\n"
                    }
                },
                {
<<<<<<< HEAD
                    "ID": "5",
=======
                    "ID": "34",
>>>>>>> ca4087dd54550ea14a7db1d37a0f2923b5b1c6d2
                    "typeID": "Title",
                    "zOrder": "5",
                    "measuredW": "253",
                    "measuredH": "44",
                    "x": "388",
                    "y": "103",
                    "properties": {
                        "bold": "false",
                        "color": "0",
                        "text": "Administration"
                    }
                },
                {
<<<<<<< HEAD
                    "ID": "6",
=======
                    "ID": "35",
>>>>>>> ca4087dd54550ea14a7db1d37a0f2923b5b1c6d2
                    "typeID": "Label",
                    "zOrder": "6",
                    "w": "375",
                    "measuredW": "210",
                    "measuredH": "26",
                    "x": "71",
                    "y": "190",
                    "properties": {
                        "bold": "true",
                        "size": "18",
                        "text": "paramètres des horaires"
                    }
                },
                {
<<<<<<< HEAD
                    "ID": "7",
=======
                    "ID": "37",
>>>>>>> ca4087dd54550ea14a7db1d37a0f2923b5b1c6d2
                    "typeID": "MenuBar",
                    "zOrder": "7",
                    "w": "903",
                    "h": "29",
                    "measuredW": "72",
                    "measuredH": "32",
                    "x": "65",
                    "y": "152",
                    "properties": {
                        "text": ",,"
                    }
                },
                {
<<<<<<< HEAD
                    "ID": "8",
=======
                    "ID": "55",
>>>>>>> ca4087dd54550ea14a7db1d37a0f2923b5b1c6d2
                    "typeID": "Calendar",
                    "zOrder": "8",
                    "w": "892",
                    "h": "323",
                    "measuredW": "96",
                    "measuredH": "96",
                    "x": "71",
                    "y": "232"
                },
                {
<<<<<<< HEAD
                    "ID": "9",
                    "typeID": "Canvas",
                    "zOrder": "9",
                    "w": "630",
                    "h": "47",
                    "measuredW": "100",
                    "measuredH": "70",
                    "x": "202",
                    "y": "278",
                    "properties": {
                        "borderStyle": "none",
=======
                    "ID": "56",
                    "typeID": "Canvas",
                    "zOrder": "9",
                    "w": "630",
                    "h": "48",
                    "measuredW": "100",
                    "measuredH": "70",
                    "x": "200",
                    "y": "323",
                    "properties": {
                        "borderStyle": "none",
                        "href": {},
>>>>>>> ca4087dd54550ea14a7db1d37a0f2923b5b1c6d2
                        "backgroundAlpha": "0.25",
                        "borderColor": "0",
                        "color": "2848996"
                    }
                },
                {
<<<<<<< HEAD
                    "ID": "13",
                    "typeID": "Canvas",
                    "zOrder": "10",
=======
                    "ID": "57",
                    "typeID": "Canvas",
                    "zOrder": "10",
                    "w": "630",
                    "h": "48",
                    "measuredW": "100",
                    "measuredH": "70",
                    "x": "200",
                    "y": "368",
                    "properties": {
                        "borderStyle": "none",
                        "backgroundAlpha": "0.25",
                        "borderColor": "0",
                        "color": "2848996"
                    }
                },
                {
                    "ID": "58",
                    "typeID": "Canvas",
                    "zOrder": "11",
                    "w": "630",
                    "h": "48",
                    "measuredW": "100",
                    "measuredH": "70",
                    "x": "201",
                    "y": "413",
                    "properties": {
                        "borderStyle": "none",
                        "backgroundAlpha": "0.25",
                        "borderColor": "0",
                        "color": "2848996"
                    }
                },
                {
                    "ID": "59",
                    "typeID": "Canvas",
                    "zOrder": "12",
                    "w": "378",
                    "h": "44",
                    "measuredW": "100",
                    "measuredH": "70",
                    "x": "200",
                    "y": "461",
                    "properties": {
                        "borderStyle": "none",
                        "backgroundAlpha": "0.25",
                        "borderColor": "0",
                        "color": "2848996"
                    }
                },
                {
                    "ID": "60",
                    "typeID": "Canvas",
                    "zOrder": "13",
>>>>>>> ca4087dd54550ea14a7db1d37a0f2923b5b1c6d2
                    "w": "62",
                    "h": "28",
                    "measuredW": "100",
                    "measuredH": "70",
                    "x": "580",
                    "y": "462",
                    "properties": {
                        "borderStyle": "none"
                    }
                },
                {
<<<<<<< HEAD
                    "ID": "14",
                    "typeID": "Canvas",
                    "zOrder": "11",
=======
                    "ID": "61",
                    "typeID": "Canvas",
                    "zOrder": "14",
>>>>>>> ca4087dd54550ea14a7db1d37a0f2923b5b1c6d2
                    "w": "62",
                    "h": "28",
                    "measuredW": "100",
                    "measuredH": "70",
                    "x": "707",
                    "y": "462",
                    "properties": {
                        "borderStyle": "none"
                    }
                },
                {
<<<<<<< HEAD
                    "ID": "15",
                    "typeID": "Canvas",
                    "zOrder": "12",
=======
                    "ID": "62",
                    "typeID": "Canvas",
                    "zOrder": "15",
>>>>>>> ca4087dd54550ea14a7db1d37a0f2923b5b1c6d2
                    "w": "62",
                    "h": "28",
                    "measuredW": "100",
                    "measuredH": "70",
                    "x": "834",
                    "y": "462",
                    "properties": {
                        "borderStyle": "none"
                    }
                },
                {
<<<<<<< HEAD
                    "ID": "16",
                    "typeID": "Canvas",
                    "zOrder": "13",
=======
                    "ID": "63",
                    "typeID": "Canvas",
                    "zOrder": "16",
>>>>>>> ca4087dd54550ea14a7db1d37a0f2923b5b1c6d2
                    "w": "62",
                    "h": "28",
                    "measuredW": "100",
                    "measuredH": "70",
                    "x": "580",
                    "y": "509",
                    "properties": {
                        "borderStyle": "none"
                    }
                },
                {
<<<<<<< HEAD
                    "ID": "17",
                    "typeID": "Canvas",
                    "zOrder": "14",
=======
                    "ID": "64",
                    "typeID": "Canvas",
                    "zOrder": "17",
>>>>>>> ca4087dd54550ea14a7db1d37a0f2923b5b1c6d2
                    "w": "62",
                    "h": "28",
                    "measuredW": "100",
                    "measuredH": "70",
                    "x": "707",
                    "y": "509",
                    "properties": {
                        "borderStyle": "none"
                    }
                },
                {
<<<<<<< HEAD
                    "ID": "18",
                    "typeID": "Canvas",
                    "zOrder": "15",
=======
                    "ID": "65",
                    "typeID": "Canvas",
                    "zOrder": "18",
>>>>>>> ca4087dd54550ea14a7db1d37a0f2923b5b1c6d2
                    "w": "62",
                    "h": "28",
                    "measuredW": "100",
                    "measuredH": "70",
                    "x": "834",
                    "y": "509",
                    "properties": {
                        "borderStyle": "none"
                    }
                },
                {
<<<<<<< HEAD
                    "ID": "19",
                    "typeID": "Canvas",
                    "zOrder": "16",
=======
                    "ID": "66",
                    "typeID": "Canvas",
                    "zOrder": "19",
>>>>>>> ca4087dd54550ea14a7db1d37a0f2923b5b1c6d2
                    "w": "62",
                    "h": "28",
                    "measuredW": "100",
                    "measuredH": "70",
                    "x": "202",
                    "y": "508",
                    "properties": {
                        "borderStyle": "none"
                    }
                },
                {
<<<<<<< HEAD
                    "ID": "20",
                    "typeID": "Canvas",
                    "zOrder": "17",
=======
                    "ID": "67",
                    "typeID": "Canvas",
                    "zOrder": "20",
>>>>>>> ca4087dd54550ea14a7db1d37a0f2923b5b1c6d2
                    "w": "62",
                    "h": "28",
                    "measuredW": "100",
                    "measuredH": "70",
                    "x": "329",
                    "y": "508",
                    "properties": {
                        "borderStyle": "none"
                    }
                },
                {
<<<<<<< HEAD
                    "ID": "21",
                    "typeID": "Canvas",
                    "zOrder": "18",
=======
                    "ID": "68",
                    "typeID": "Canvas",
                    "zOrder": "21",
>>>>>>> ca4087dd54550ea14a7db1d37a0f2923b5b1c6d2
                    "w": "62",
                    "h": "28",
                    "measuredW": "100",
                    "measuredH": "70",
                    "x": "456",
                    "y": "508",
                    "properties": {
                        "borderStyle": "none"
                    }
                },
                {
<<<<<<< HEAD
                    "ID": "22",
                    "typeID": "Canvas",
                    "zOrder": "19",
=======
                    "ID": "69",
                    "typeID": "Canvas",
                    "zOrder": "22",
>>>>>>> ca4087dd54550ea14a7db1d37a0f2923b5b1c6d2
                    "w": "62",
                    "h": "28",
                    "measuredW": "100",
                    "measuredH": "70",
                    "x": "78",
                    "y": "508",
                    "properties": {
                        "borderStyle": "none"
                    }
                },
                {
<<<<<<< HEAD
                    "ID": "23",
                    "typeID": "Canvas",
                    "zOrder": "20",
=======
                    "ID": "70",
                    "typeID": "Canvas",
                    "zOrder": "23",
>>>>>>> ca4087dd54550ea14a7db1d37a0f2923b5b1c6d2
                    "w": "62",
                    "h": "28",
                    "measuredW": "100",
                    "measuredH": "70",
                    "x": "77",
                    "y": "282",
                    "properties": {
                        "borderStyle": "none"
                    }
                },
                {
<<<<<<< HEAD
                    "ID": "24",
                    "typeID": "Button",
                    "zOrder": "21",
=======
                    "ID": "71",
                    "typeID": "Button",
                    "zOrder": "24",
>>>>>>> ca4087dd54550ea14a7db1d37a0f2923b5b1c6d2
                    "w": "129",
                    "h": "38",
                    "measuredW": "115",
                    "measuredH": "27",
                    "x": "834",
                    "y": "563",
                    "properties": {
                        "text": "Enregistrer",
                        "size": "18"
                    }
                }
            ]
        },
        "mockupH": "640",
        "mockupW": "1009",
        "measuredW": "1019",
        "measuredH": "644",
        "version": "1.0"
    }
}