{
    "mockup": {
        "controls": {
            "control": [
                {
                    "ID": "0",
                    "typeID": "Title",
                    "zOrder": "0",
                    "measuredW": "570",
                    "measuredH": "44",
                    "x": "80",
                    "y": "200",
                    "properties": {
                        "bold": "false",
                        "color": "0",
                        "text": "Welcome to Balsamiq Mockups!"
                    }
                },
                {
                    "ID": "1",
                    "typeID": "Label",
                    "zOrder": "1",
                    "measuredW": "94",
                    "measuredH": "26",
                    "x": "81",
                    "y": "281",
                    "properties": {
                        "bold": "true",
                        "color": "3355443",
                        "size": "18",
                        "text": "Start here!"
                    }
                },
                {
                    "ID": "2",
                    "typeID": "Arrow",
                    "zOrder": "2",
                    "w": "61",
                    "h": "10",
                    "measuredW": "150",
                    "measuredH": "100",
                    "x": "12",
                    "y": "294",
                    "properties": {
                        "color": "13576743",
                        "direction": "top",
                        "rightArrow": "false"
                    }
                },
                {
                    "ID": "3",
                    "typeID": "Image",
                    "zOrder": "3",
                    "w": "166",
                    "h": "166",
                    "measuredW": "77",
                    "measuredH": "79",
                    "x": "264",
                    "y": "25",
                    "properties": {
                        "src": {
                            "Anchor": "-1",
                            "ID": "B0D5351C-4553-5BC5-3353-D61D302377D9"
                        }
                    }
                },
                {
                    "ID": "4",
                    "typeID": "BrowserWindow",
                    "zOrder": "4",
                    "w": "1009",
                    "h": "640",
                    "measuredW": "450",
                    "measuredH": "400",
                    "x": "10",
                    "y": "4",
                    "properties": {
                        "text": "Administration\nhttp://Pointeuse/admin/settingFilters\n"
                    }
                },
                {
                    "ID": "5",
                    "typeID": "Title",
                    "zOrder": "5",
                    "measuredW": "253",
                    "measuredH": "44",
                    "x": "388",
                    "y": "103",
                    "properties": {
                        "bold": "false",
                        "color": "0",
                        "text": "Administration"
                    }
                },
                {
                    "ID": "6",
                    "typeID": "Label",
                    "zOrder": "6",
                    "w": "375",
                    "measuredW": "193",
                    "measuredH": "26",
                    "x": "71",
                    "y": "190",
                    "properties": {
                        "bold": "true",
                        "size": "18",
                        "text": "paramètres des filtres"
                    }
                },
                {
                    "ID": "7",
                    "typeID": "DataGrid",
                    "zOrder": "7",
                    "w": "245",
                    "h": "335",
                    "measuredW": "92",
                    "measuredH": "51",
                    "x": "380",
                    "y": "232",
                    "properties": {
                        "text": "Nom du filtre\n",
                        "verticalScrollbar": "false"
                    }
                },
                {
                    "ID": "8",
                    "typeID": "MenuBar",
                    "zOrder": "8",
                    "w": "903",
                    "h": "29",
                    "measuredW": "72",
                    "measuredH": "32",
                    "x": "65",
                    "y": "152",
                    "properties": {
                        "text": ",,"
                    }
                },
                {
                    "ID": "9",
                    "typeID": "DataGrid",
                    "zOrder": "9",
                    "w": "245",
                    "h": "335",
                    "measuredW": "176",
                    "measuredH": "561",
                    "x": "723",
                    "y": "232",
                    "properties": {
                        "text": "Élèves\n[gawen.ackrm@eduge.ch]\n[lou.dvl@eduge.ch]\n[jonathan.brljq@eduge.ch]\n[gregory.pr@eduge.ch]\n[bryan.vllf@eduge.ch]\n[khalil.mddb@eduge.ch]\n[pepe.pr@eduge.ch]\n[loic.brnn@eduge.ch]\n[ivan.rg@eduge.ch]\n[ruben.andrr@eduge.ch]\n[gaetan.lrtz@eduge.ch]\n[morel.mrl@eduge.ch]\n[raphael.lps@eduge.ch]\n[loic.dbs@eduge.ch]\n\n\n\n",
                        "verticalScrollbar": "true"
                    }
                },
                {
                    "ID": "10",
                    "typeID": "Button",
                    "zOrder": "10",
                    "w": "62",
                    "h": "55",
                    "measuredW": "47",
                    "measuredH": "40",
                    "x": "641",
                    "y": "332",
                    "properties": {
                        "text": ">",
                        "size": "32",
                        "bold": "true"
                    }
                },
                {
                    "ID": "11",
                    "typeID": "Button",
                    "zOrder": "11",
                    "w": "62",
                    "h": "55",
                    "measuredW": "45",
                    "measuredH": "40",
                    "x": "641",
                    "y": "396",
                    "properties": {
                        "text": "<",
                        "size": "32",
                        "bold": "true"
                    }
                },
                {
                    "ID": "12",
                    "typeID": "DataGrid",
                    "zOrder": "12",
                    "w": "249",
                    "h": "289",
                    "measuredW": "146",
                    "measuredH": "141",
                    "x": "71",
                    "y": "232",
                    "properties": {
                        "text": "Filtres\nfiltre de base\nclasse mercredi matin\nfiltre 2\n_nomDuFiltre_",
                        "verticalScrollbar": "false",
                        "hLines": "false",
                        "vLines": "true",
                        "selectedIndex": "3",
                        "borderStyle": "square",
                        "hasHeader": "true",
                        "rowHeight": "30"
                    }
                },
                {
                    "ID": "13",
                    "typeID": "Button",
                    "zOrder": "13",
                    "w": "250",
                    "h": "39",
                    "measuredW": "179",
                    "measuredH": "32",
                    "x": "71",
                    "y": "528",
                    "properties": {
                        "text": "Créer un filtre",
                        "size": "24",
                        "bold": "false",
                        "rotation": "180",
                        "state": "selected"
                    }
                },
                {
                    "ID": "14",
                    "typeID": "Title",
                    "zOrder": "14",
                    "measuredW": "570",
                    "measuredH": "44",
                    "x": "80",
                    "y": "200",
                    "properties": {
                        "bold": "false",
                        "color": "0",
                        "text": "Welcome to Balsamiq Mockups!"
                    }
                },
                {
                    "ID": "15",
                    "typeID": "Label",
                    "zOrder": "15",
                    "measuredW": "94",
                    "measuredH": "26",
                    "x": "81",
                    "y": "281",
                    "properties": {
                        "bold": "true",
                        "color": "3355443",
                        "size": "18",
                        "text": "Start here!"
                    }
                },
                {
                    "ID": "16",
                    "typeID": "Arrow",
                    "zOrder": "16",
                    "w": "61",
                    "h": "10",
                    "measuredW": "150",
                    "measuredH": "100",
                    "x": "12",
                    "y": "294",
                    "properties": {
                        "color": "13576743",
                        "direction": "top",
                        "rightArrow": "false"
                    }
                },
                {
                    "ID": "17",
                    "typeID": "Image",
                    "zOrder": "17",
                    "w": "166",
                    "h": "166",
                    "measuredW": "77",
                    "measuredH": "79",
                    "x": "264",
                    "y": "25",
                    "properties": {
                        "src": {
                            "Anchor": "-1",
                            "ID": "B0D5351C-4553-5BC5-3353-D61D302377D9"
                        }
                    }
                },
                {
                    "ID": "18",
                    "typeID": "BrowserWindow",
                    "zOrder": "18",
                    "w": "1009",
                    "h": "640",
                    "measuredW": "450",
                    "measuredH": "400",
                    "x": "10",
                    "y": "4",
                    "properties": {
                        "text": "Administration\nhttp://Pointeuse/admin/settingFilters\n"
                    }
                },
                {
                    "ID": "19",
                    "typeID": "Title",
                    "zOrder": "19",
                    "measuredW": "253",
                    "measuredH": "44",
                    "x": "388",
                    "y": "103",
                    "properties": {
                        "bold": "false",
                        "color": "0",
                        "text": "Administration"
                    }
                },
                {
                    "ID": "20",
                    "typeID": "Label",
                    "zOrder": "20",
                    "w": "375",
                    "measuredW": "193",
                    "measuredH": "26",
                    "x": "71",
                    "y": "190",
                    "properties": {
                        "bold": "true",
                        "size": "18",
                        "text": "paramètres des filtres"
                    }
                },
                {
                    "ID": "21",
                    "typeID": "DataGrid",
                    "zOrder": "21",
                    "w": "245",
                    "h": "335",
                    "measuredW": "160",
                    "measuredH": "141",
                    "x": "380",
                    "y": "232",
                    "properties": {
                        "text": "classe mercredi matin\n[khalil.mddb@eduge.ch]\n[jonathan.brljq@eduge.ch]\n[loic.brnn@eduge.ch]\n",
                        "verticalScrollbar": "false"
                    }
                },
                {
                    "ID": "22",
                    "typeID": "MenuBar",
                    "zOrder": "22",
                    "w": "903",
                    "h": "29",
                    "measuredW": "72",
                    "measuredH": "32",
                    "x": "65",
                    "y": "152",
                    "properties": {
                        "text": ",,"
                    }
                },
                {
                    "ID": "23",
                    "typeID": "DataGrid",
                    "zOrder": "23",
                    "w": "245",
                    "h": "335",
                    "measuredW": "174",
                    "measuredH": "471",
                    "x": "723",
                    "y": "232",
                    "properties": {
                        "text": "Élèves\n[gawen.ackrm@eduge.ch]\n[lou.dvl@eduge.ch]\n[gregory.pr@eduge.ch]\n[bryan.vllf@eduge.ch]\n[ivan.rg@eduge.ch]\n[ruben.andrr@eduge.ch]\n[gaetan.lrtz@eduge.ch]\n[morel.mrl@eduge.ch]\n[pepe.pr@eduge.ch]\n[raphael.lps@eduge.ch]\n[loic.dbs@eduge.ch]\n\n\n\n",
                        "verticalScrollbar": "true"
                    }
                },
                {
                    "ID": "24",
                    "typeID": "Button",
                    "zOrder": "24",
                    "w": "62",
                    "h": "55",
                    "measuredW": "47",
                    "measuredH": "40",
                    "x": "641",
                    "y": "332",
                    "properties": {
                        "text": ">",
                        "size": "32",
                        "bold": "true"
                    }
                },
                {
                    "ID": "25",
                    "typeID": "Button",
                    "zOrder": "25",
                    "w": "62",
                    "h": "55",
                    "measuredW": "45",
                    "measuredH": "40",
                    "x": "641",
                    "y": "396",
                    "properties": {
                        "text": "<",
                        "size": "32",
                        "bold": "true"
                    }
                },
                {
                    "ID": "26",
                    "typeID": "DataGrid",
                    "zOrder": "26",
                    "w": "249",
                    "h": "289",
                    "measuredW": "146",
                    "measuredH": "141",
                    "x": "71",
                    "y": "232",
                    "properties": {
                        "text": "Filtres\nfiltre de base\nclasse mercredi matin\nfiltre 2\n",
                        "verticalScrollbar": "false",
                        "selectedIndex": "1"
                    }
                },
                {
                    "ID": "27",
                    "typeID": "Button",
                    "zOrder": "27",
                    "w": "120",
                    "h": "39",
                    "measuredW": "115",
                    "measuredH": "27",
                    "x": "71",
                    "y": "528",
                    "properties": {
                        "text": "Créer un filtre",
                        "size": "14",
                        "bold": "false"
                    }
                },
                {
                    "ID": "28",
                    "typeID": "Button",
                    "zOrder": "28",
                    "w": "120",
                    "h": "39",
                    "measuredW": "125",
                    "measuredH": "27",
                    "x": "200",
                    "y": "528",
                    "properties": {
                        "text": "Supprimer un filtre",
                        "size": "12",
                        "bold": "false"
                    }
                }
            ]
        },
        "mockupH": "640",
        "mockupW": "1009",
        "measuredW": "1019",
        "measuredH": "644",
        "version": "1.0"
    }
}