{
    "mockup": {
        "controls": {
            "control": [
                {
                    "ID": "0",
                    "typeID": "BrowserWindow",
                    "zOrder": "0",
                    "w": "1156",
                    "h": "633",
                    "measuredW": "450",
                    "measuredH": "400",
                    "x": "43",
                    "y": "26",
                    "properties": {
                        "text": "A Web Page\nhttp://User//Projects"
                    }
                },
                {
                    "ID": "1",
                    "typeID": "TextArea",
                    "zOrder": "1",
                    "w": "270",
                    "h": "241",
                    "measuredW": "200",
                    "measuredH": "140",
                    "x": "53",
                    "y": "178",
                    "properties": {
                        "text": "Présence\nH.MI.P3A\nJean Bon\n_______________________________\n \nTemps total planning: 400H\nTemps passé: 300H\nDelta Temps: 100H"
                    }
                },
                {
                    "ID": "2",
                    "typeID": "TextArea",
                    "zOrder": "2",
                    "w": "272",
                    "h": "241",
                    "measuredW": "200",
                    "measuredH": "140",
                    "x": "330",
                    "y": "178",
                    "properties": {
                        "text": "Projet Montre\nLarry Bambelle\n_______________________________\n \nTemps pour réaliser le projet\n100H\nTemps passé par les élèves sur le projet\n5H50\nTemps restant pour le projet\n94H50\nTemps passé sur le projet \n3H00"
                    }
                },
                {
                    "ID": "3",
                    "typeID": "TextArea",
                    "zOrder": "3",
                    "w": "267",
                    "h": "242",
                    "measuredW": "200",
                    "measuredH": "140",
                    "x": "609",
                    "y": "178",
                    "properties": {
                        "text": "Rolex\nJerry Kan\n_______________________________\n \nTemps pour réaliser le projet\n200H\nTemps passé par les élèves sur le projet\n60H01\nTemps restant pour le projet\n139H59\nTemps passé sur le projet \n8H40"
                    }
                },
                {
                    "ID": "4",
                    "typeID": "TextArea",
                    "zOrder": "4",
                    "w": "274",
                    "h": "241",
                    "measuredW": "200",
                    "measuredH": "140",
                    "x": "880",
                    "y": "178",
                    "properties": {
                        "text": "Projet Gousset\nMarc Afleche\n_______________________________\n \nTemps pour réaliser le projet\n90H\nTemps passé par les élèves sur le projet\n12H14\nTemps restant pour le projet\n77H46\nTemps passé sur le projet \n10H12"
                    }
                }
            ]
        },
        "mockupH": "633",
        "mockupW": "1156",
        "measuredW": "1199",
        "measuredH": "659",
        "version": "1.0"
    }
}